<?xml version="1.0" encoding="UTF-8" standalone="no"?>
<svg
   xmlns:dc="http://purl.org/dc/elements/1.1/"
   xmlns:cc="http://creativecommons.org/ns#"
   xmlns:rdf="http://www.w3.org/1999/02/22-rdf-syntax-ns#"
   xmlns:svg="http://www.w3.org/2000/svg"
   xmlns="http://www.w3.org/2000/svg"
   xmlns:sodipodi="http://sodipodi.sourceforge.net/DTD/sodipodi-0.dtd"
   xmlns:inkscape="http://www.inkscape.org/namespaces/inkscape"
   inkscape:version="1.0 (4035a4fb49, 2020-05-01)"
   sodipodi:docname="kfocus-bkgd-black.svg"
   version="1.1"
   id="svg834"
   width="1224"
   height="408"
   viewBox="0 0 1224 408">
  <sodipodi:namedview
     inkscape:current-layer="svg834"
     inkscape:window-maximized="0"
     inkscape:window-y="0"
     inkscape:window-x="0"
     inkscape:cy="-12.54639"
     inkscape:cx="586.29476"
     inkscape:zoom="0.11510458"
     showgrid="false"
     id="namedview84"
     inkscape:window-height="480"
     inkscape:window-width="820"
     inkscape:pageshadow="2"
     inkscape:pageopacity="0"
     guidetolerance="10"
     gridtolerance="10"
     objecttolerance="10"
     borderopacity="1"
     bordercolor="#666666"
     pagecolor="#ffffff" />
  <metadata
     id="metadata840">
    <rdf:RDF>
      <cc:Work
         rdf:about="">
        <dc:format>image/svg+xml</dc:format>
        <dc:type
           rdf:resource="http://purl.org/dc/dcmitype/StillImage" />
        <dc:title />
      </cc:Work>
    </rdf:RDF>
  </metadata>
  <defs
     id="defs838">
    <filter
       style="color-interpolation-filters:sRGB;"
       id="filter1483">
      <feGaussianBlur
         stdDeviation="5 5"
         result="blur"
         id="feGaussianBlur1481" />
    </filter>
    <filter
       style="color-interpolation-filters:sRGB;"
       id="filter1487">
      <feGaussianBlur
         stdDeviation="5 5"
         result="blur"
         id="feGaussianBlur1485" />
    </filter>
    <filter
       style="color-interpolation-filters:sRGB;"
       id="filter1491">
      <feGaussianBlur
         stdDeviation="5 5"
         result="blur"
         id="feGaussianBlur1489" />
    </filter>
    <filter
       style="color-interpolation-filters:sRGB;"
       id="filter1497">
      <feGaussianBlur
         stdDeviation="5 5"
         result="fbSourceGraphic"
         id="feGaussianBlur1495" />
      <feColorMatrix
         result="fbSourceGraphicAlpha"
         in="fbSourceGraphic"
         values="0 0 0 -1 0 0 0 0 -1 0 0 0 0 -1 0 0 0 0 1 0"
         id="feColorMatrix1529" />
      <feGaussianBlur
         id="feGaussianBlur1531"
         stdDeviation="12 12"
         result="blur"
         in="fbSourceGraphic" />
    </filter>
    <filter
       style="color-interpolation-filters:sRGB;"
       id="filter1501">
      <feGaussianBlur
         stdDeviation="8 8"
         result="blur"
         id="feGaussianBlur1499" />
    </filter>
    <filter
       style="color-interpolation-filters:sRGB;"
       id="filter1517">
      <feColorMatrix
         in="SourceGraphic"
         values="1 0 0 0 0 0 1 0 0 0 0 0 1 0 0 -0.2125 -0.7154 -0.0721 1 0 "
         result="colormatrix"
         id="feColorMatrix1507" />
      <feComposite
         in="SourceGraphic"
         in2="colormatrix"
         operator="arithmetic"
         k2="1"
         k3="0"
         k4="0"
         result="composite"
         id="feComposite1509" />
      <feGaussianBlur
         stdDeviation="5 0.01"
         result="blur1"
         id="feGaussianBlur1511" />
      <feGaussianBlur
         in="composite"
         stdDeviation="0.01 5"
         result="blur2"
         id="feGaussianBlur1513" />
      <feBlend
         in="blur2"
         in2="blur1"
         mode="darken"
         result="blend"
         id="feBlend1515" />
    </filter>
    <filter
       style="color-interpolation-filters:sRGB;"
       id="filter1521">
      <feGaussianBlur
         stdDeviation="8 8"
         result="blur"
         id="feGaussianBlur1519" />
    </filter>
    <filter
       style="color-interpolation-filters:sRGB;"
       id="filter1525">
      <feGaussianBlur
         stdDeviation="6 6"
         result="blur"
         id="feGaussianBlur1523" />
    </filter>
    <filter
       style="color-interpolation-filters:sRGB;"
       id="filter1535">
      <feGaussianBlur
         stdDeviation="12 12"
         result="blur"
         id="feGaussianBlur1533" />
    </filter>
    <filter
       style="color-interpolation-filters:sRGB;"
       id="filter1549">
      <feGaussianBlur
         stdDeviation="3 3"
         result="blur"
         id="feGaussianBlur1547" />
    </filter>
    <filter
       style="color-interpolation-filters:sRGB;"
       id="filter1555">
      <feGaussianBlur
         stdDeviation="3 3"
         result="blur"
         id="feGaussianBlur1553" />
    </filter>
    <filter
       style="color-interpolation-filters:sRGB;"
       id="filter1561">
      <feGaussianBlur
         stdDeviation="3 3"
         result="blur"
         id="feGaussianBlur1559" />
    </filter>
    <filter
       style="color-interpolation-filters:sRGB;"
       id="filter1567">
      <feGaussianBlur
         stdDeviation="3 3"
         result="blur"
         id="feGaussianBlur1565" />
    </filter>
    <filter
       style="color-interpolation-filters:sRGB;"
       id="filter1573">
      <feGaussianBlur
         stdDeviation="3 3"
         result="blur"
         id="feGaussianBlur1571" />
    </filter>
    <filter
       style="color-interpolation-filters:sRGB"
       id="filter2687"
       x="-0.11999999"
       width="1.24"
       y="-0.12000001"
       height="1.24">
      <feGaussianBlur
         stdDeviation="3.3000002"
         id="feGaussianBlur2689" />
    </filter>
    <filter
       style="color-interpolation-filters:sRGB"
       id="filter2779"
       x="-0.132"
       width="1.264"
       y="-0.132"
       height="1.264">
      <feGaussianBlur
         stdDeviation="2.365"
         id="feGaussianBlur2781" />
    </filter>
    <filter
       style="color-interpolation-filters:sRGB"
       id="filter2783"
       x="-0.13199992"
       width="1.2639998"
       y="-0.13200008"
       height="1.2640002">
      <feGaussianBlur
         stdDeviation="1.5400009"
         id="feGaussianBlur2785" />
    </filter>
    <filter
       style="color-interpolation-filters:sRGB"
       id="filter2787"
       x="-0.1439999"
       width="1.2879998"
       y="-0.1440001"
       height="1.2880002">
      <feGaussianBlur
         stdDeviation="1.1400008"
         id="feGaussianBlur2789" />
    </filter>
    <filter
       style="color-interpolation-filters:sRGB"
       id="filter2873"
       x="-0.15600016"
       width="1.3120003"
       y="-0.15599984"
       height="1.3119997">
      <feGaussianBlur
         stdDeviation="0.90999906"
         id="feGaussianBlur2875" />
    </filter>
    <filter
       style="color-interpolation-filters:sRGB"
       id="filter2885"
       x="-0.16800017"
       width="1.3360003"
       y="-0.16799983"
       height="1.3359997">
      <feGaussianBlur
         stdDeviation="0.97999899"
         id="feGaussianBlur2887" />
    </filter>
    <filter
       style="color-interpolation-filters:sRGB;"
       id="filter2893">
      <feGaussianBlur
         stdDeviation="3 3"
         result="blur"
         id="feGaussianBlur2891" />
    </filter>
    <filter
       style="color-interpolation-filters:sRGB;"
       id="filter2897">
      <feGaussianBlur
         stdDeviation="3 3"
         result="blur"
         id="feGaussianBlur2895" />
    </filter>
    <filter
       style="color-interpolation-filters:sRGB"
       id="filter3239"
       x="-0.17999955"
       width="1.3599991"
       y="-0.18000045"
       height="1.3600009">
      <feGaussianBlur
         stdDeviation="0.6000015"
         id="feGaussianBlur3241" />
    </filter>
    <filter
       style="color-interpolation-filters:sRGB"
       id="filter3249"
       x="-0.19199953"
       width="1.3839991"
       y="-0.19200047"
       height="1.3840009">
      <feGaussianBlur
         stdDeviation="0.50400124"
         id="feGaussianBlur3251" />
    </filter>
    <filter
       style="color-interpolation-filters:sRGB"
       id="filter3279"
       x="-0.2039995"
       width="1.407999"
       y="-0.2040005"
       height="1.408001">
      <feGaussianBlur
         stdDeviation="0.408001"
         id="feGaussianBlur3281" />
    </filter>
    <filter
       style="color-interpolation-filters:sRGB"
       id="filter3285"
       x="-0.20399951"
       width="1.407999"
       y="-0.20400049"
       height="1.408001">
      <feGaussianBlur
         stdDeviation="0.35700085"
         id="feGaussianBlur3287" />
    </filter>
    <filter
       style="color-interpolation-filters:sRGB"
       id="filter3323"
       x="-0.20399953"
       width="1.4079991"
       y="-0.20400047"
       height="1.4080009">
      <feGaussianBlur
         stdDeviation="0.29750069"
         id="feGaussianBlur3325" />
    </filter>
  </defs>
  <path
     id="path2819-8-3-8"
     d="m 349.59584,79.860052 c -158.77837,0 -287.494868,128.713058 -287.494868,287.490458 0,158.77545 128.716498,287.50956 287.494868,287.50956 158.78464,0 287.5051,-128.73411 287.5051,-287.50956 0,-158.7774 -128.72046,-287.490458 -287.5051,-287.490458 z M 331.5032,137.53401 c 1.56438,-0.10408 3.06673,0.74905 3.76143,2.2071 l 28.39206,59.68844 c 13.8297,0.40605 27.70216,2.78532 41.2312,7.10502 l 45.61526,-45.55043 c 1.256,-1.26064 3.2214,-1.50032 4.75514,-0.56756 l 36.26272,22.05471 c 1.57409,0.95717 2.2601,2.88842 1.64545,4.6156 l -22.05867,62.09844 c 8.32801,9.24383 15.38851,19.38016 21.10297,30.15076 l 67.71037,0.0486 c 1.79263,9.5e-4 3.34876,1.22534 3.77459,2.96143 l 10.04368,41.24207 c 0.44211,1.7873 -0.43577,3.63211 -2.09992,4.42744 l -84.81225,18.56539 C 476.80029,279.79479 419.1827,228.58344 349.59879,228.58344 c -15.42872,0 -30.2679,2.52259 -44.132,7.16971 l -0.66783,-0.41023 -18.17444,-83.88402 c 0.0104,-1.79553 1.24049,-3.35215 2.9723,-3.77604 L 330.831,137.6385 c 0.22383,-0.055 0.44874,-0.0898 0.6722,-0.10451 z m -133.57225,60.72654 c 0.13554,-0.007 0.27174,-0.002 0.40769,0.002 0.65198,0.042 1.30019,0.2495 1.87929,0.62788 l 64.45456,58.71352 c -32.75668,25.38402 -53.84683,65.1003 -53.84683,109.74856 0,40.30481 17.18843,76.59285 44.62882,101.94806 l -0.0349,0.74843 -57.95171,64.10257 c -1.53898,0.92496 -3.50918,0.68154 -4.7712,-0.5779 l -30.00829,-30.01196 c -1.30659,-1.30124 -1.51828,-3.33608 -0.50705,-4.88029 l 36.24518,-55.27167 c -6.83922,-12.0272 -12.01486,-25.11493 -15.35413,-38.9189 L 120.4518,389.18378 c -1.72976,-0.41804 -2.95483,-1.97211 -2.95483,-3.76717 v -42.44344 c 0,-1.84212 1.29273,-3.43164 3.08779,-3.80396 l 64.51893,-13.42051 c 3.57054,-11.91874 8.56284,-23.21842 14.79588,-33.69743 l -35.14195,-57.87623 c -0.93027,-1.53246 -0.69357,-3.49817 0.56846,-4.76412 l 30.01702,-30.01258 c 0.70947,-0.71447 1.63878,-1.0998 2.58802,-1.13809 z m 287.20115,199.01725 84.14589,18.84186 c 1.56964,0.87175 2.34203,2.70075 1.88073,4.42299 l -11.02276,40.98334 c -0.47529,1.78156 -2.13338,2.98135 -3.97625,2.87611 l -65.98748,-3.8128 c -7.00693,11.93026 -15.76318,22.94969 -26.05689,32.7343 l 17.99911,61.89993 c 0.50124,1.70747 -0.23479,3.54596 -1.79013,4.4421 l -36.7742,21.18863 c -1.59613,0.91963 -3.61973,0.59166 -4.83844,-0.77782 l -43.83674,-49.20441 c -12.1097,2.85627 -24.39284,4.17197 -36.58423,4.00244 l -32.60504,59.34288 c -0.86346,1.57101 -2.68625,2.34664 -4.4132,1.88509 L 280.2838,585.07581 c -1.77964,-0.47191 -2.97604,-2.12858 -2.87295,-3.9701 l 22.16827,-83.89876 0.39747,-0.21767 c 15.40974,5.9033 32.13624,9.14598 49.62216,9.14598 66.37047,0 121.84884,-46.59899 135.53335,-108.85753 z"
     style="fill:#ce5f5f;fill-opacity:1;stroke-width:6.44275665;filter:url(#filter1501);opacity:0.5" />
  <path
     style="fill:#ffffff;fill-opacity:0.24090911;stroke-width:4.48191833;filter:url(#filter1487)"
     d="m 141.21247,-325.97897 c -110.45453,0 -199.996456,89.53951 -199.996456,199.99336 0,110.452472 89.541926,200.006638 199.996456,200.006638 110.45888,0 200.00355,-89.554166 200.00355,-200.006638 0,-110.45385 -89.54467,-199.99336 -200.00355,-199.99336 z m -12.58619,40.12101 c 1.08826,-0.0725 2.13339,0.52107 2.61665,1.53537 l 19.751,41.52239 c 9.62065,0.28247 19.27107,1.93762 28.68258,4.94262 l 31.73235,-31.68724 c 0.87373,-0.87698 2.24097,-1.04371 3.30792,-0.39484 l 25.22624,15.34241 c 1.09502,0.66586 1.57225,2.00933 1.14466,3.21085 l -15.34517,43.19893 c 5.79341,6.43048 10.70506,13.48184 14.68035,20.97444 l 47.10284,0.0338 c 1.24706,6.5e-4 2.32959,0.85241 2.62581,2.06012 l 6.98691,28.69013 c 0.30755,1.24334 -0.30313,2.52669 -1.46081,3.07996 l -58.99982,12.91505 c -6.97526,-46.45997 -47.05707,-82.08526 -95.46326,-82.08526 -10.73303,0 -21.05594,1.75483 -30.70053,4.98761 l -0.46458,-0.28536 -12.643098,-58.35411 c 0.0072,-1.24907 0.862953,-2.33194 2.067695,-2.62681 l 28.684653,-6.98739 c 0.15571,-0.0383 0.31217,-0.0624 0.46761,-0.0727 z m -92.919831,42.24454 c 0.09429,-0.005 0.189036,-9.6e-4 0.28361,9.6e-4 0.453551,0.0292 0.90448,0.17358 1.307332,0.43678 l 44.837956,40.8442 c -22.787257,17.65845 -37.458665,45.28717 -37.458665,76.34683 0,28.038117 11.957168,53.281969 31.046136,70.920376 l -0.02427,0.520648 -40.314233,44.5930906 c -1.070595,0.64345 -2.44117,0.474115 -3.319097,-0.4020176 L 11.18988,-31.230339 c -0.908933,-0.90521 -1.056196,-2.320751 -0.352731,-3.394983 L 36.051188,-73.075181 C 31.293469,-81.441928 27.693023,-90.546436 25.370053,-100.1492 l -43.562146,-10.64839 c -1.203306,-0.29081 -2.055531,-1.37189 -2.055531,-2.62063 v -29.52587 c 0,-1.28148 0.899286,-2.38724 2.148022,-2.64623 l 44.882741,-9.33601 c 2.483853,-8.2913 5.956758,-16.15195 10.292785,-23.4417 L 12.62935,-218.62975 c -0.647144,-1.06605 -0.482483,-2.43351 0.395452,-3.31417 l 20.881404,-20.87832 c 0.493545,-0.49702 1.140021,-0.76508 1.800362,-0.79171 z m 199.792121,138.44679 58.53626,13.107374 c 1.09193,0.60643 1.62924,1.878773 1.30834,3.076854 l -7.66801,28.510154 c -0.33063,1.239346 -1.48408,2.073983 -2.76609,2.000772 l -45.90433,-2.652384 c -4.87439,8.299314 -10.96569,15.965003 -18.12653,22.771688 l 12.52112,43.0608204 c 0.34868,1.1878053 -0.16334,2.4667547 -1.24532,3.090157 L 206.57197,22.538723 c -1.11035,0.639743 -2.51807,0.411591 -3.36587,-0.541091 l -30.49512,-34.229155 c -8.42414,1.986968 -16.96893,2.9022376 -25.4499,2.7843036 L 124.57931,31.834787 c -0.60068,1.092876 -1.8687,1.632445 -3.07005,1.311367 L 92.995391,25.475455 C 91.75738,25.147169 90.925099,23.994703 90.996818,22.713647 l 15.421412,-58.364357 0.27649,-0.151424 c 10.71982,4.106644 22.35566,6.362421 34.51978,6.362421 46.17076,0 84.76441,-32.416689 94.28407,-75.726967 z"
     id="path1465" />
  <path
     id="path1503"
     d="m 706.37896,-331.955 c -107.69314,0 -194.9965,87.30102 -194.9965,194.99351 0,107.691177 87.30336,195.006487 194.9965,195.006487 107.69739,0 195.0035,-87.31531 195.0035,-195.006487 0,-107.69249 -87.30611,-194.99351 -195.0035,-194.99351 z m -12.27152,39.11798 c 1.06106,-0.0706 2.08004,0.50805 2.55123,1.49698 l 19.25721,40.48434 c 9.38015,0.27541 18.78929,1.88917 27.96551,4.81905 l 30.93904,-30.89507 c 0.85189,-0.85504 2.18495,-1.01761 3.22523,-0.38495 l 24.59558,14.95885 c 1.06764,0.6492 1.53294,1.9591 1.11604,3.13058 l -14.96153,42.11894 c 5.64856,6.26973 10.43743,13.1448 14.31331,20.45008 l 45.92529,0.033 c 1.21593,6.4e-4 2.27137,0.8311 2.56017,2.00863 l 6.81224,27.97288 c 0.29986,1.21225 -0.29558,2.46351 -1.42428,3.00295 l -57.52485,12.59218 c -6.80089,-45.29849 -45.88063,-80.03314 -93.07667,-80.03314 -10.46469,0 -20.52953,1.71097 -29.93301,4.86294 l -0.45295,-0.27824 -12.32701,-56.89525 c 0.007,-1.21784 0.84138,-2.27364 2.01599,-2.56115 l 27.96752,-6.8127 c 0.15182,-0.0373 0.30437,-0.0609 0.45594,-0.0709 z m -90.59682,41.18843 c 0.0919,-0.005 0.18431,-9.8e-4 0.27651,9.9e-4 0.44222,0.0285 0.88188,0.16922 1.27466,0.42587 l 43.717,39.82308 c -22.21757,17.21699 -36.52219,44.15499 -36.52219,74.43816 0,27.33717 11.65823,51.949927 30.26997,69.147377 l -0.0237,0.50763 -39.30637,43.47826 c -1.04383,0.62737 -2.38014,0.46227 -3.23612,-0.39197 l -20.3534,-20.35556 c -0.88621,-0.88259 -1.02979,-2.26274 -0.34392,-3.31011 l 24.58369,-37.48862 c -4.63878,-8.15758 -8.14921,-17.034477 -10.41411,-26.397167 l -42.47309,-10.38218 c -1.17322,-0.28355 -2.00414,-1.3376 -2.00414,-2.55512 v -28.78773 c 0,-1.24944 0.87681,-2.32754 2.09433,-2.58008 l 43.76066,-9.1026 c 2.42175,-8.08402 5.80784,-15.74815 10.03546,-22.85565 l -23.8354,-39.25518 c -0.63096,-1.03941 -0.47042,-2.37268 0.38556,-3.23132 l 20.35938,-20.35636 c 0.4812,-0.4846 1.11151,-0.74595 1.75534,-0.77192 z m 194.79727,134.98562 57.07288,12.77969 c 1.0646,0.59128 1.58848,1.83182 1.27561,2.99995 l -7.47627,27.797387 c -0.32238,1.20836 -1.447,2.02214 -2.69697,1.95075 l -44.75673,-2.58607 c -4.75252,8.09183 -10.69154,15.56588 -17.67337,22.20239 l 12.2081,41.9843002 c 0.33996,1.15812 -0.15926,2.40509 -1.21418,3.01291 l -24.9425,14.37142 c -1.08258,0.62374 -2.45512,0.4013 -3.28172,-0.52757 L 737.09,-26.051243 c -8.21354,1.9373 -16.54471,2.82968 -24.81364,2.7147 l -22.11473,40.24996 c -0.58565,1.06555 -1.82198,1.59163 -2.9933,1.27858 l -27.801,-7.47893 c -1.20706,-0.32008 -2.01853,-1.4437298 -1.94862,-2.6927598 l 15.03587,-56.9052602 0.26959,-0.14763 c 10.45183,4.00398 21.79675,6.20336 33.65676,6.20336 45.0165,0 82.6453,-31.60627 91.92696,-73.833797 z"
     style="fill:#ff9800;fill-opacity:1;stroke-width:4.36986923;filter:url(#filter1497);opacity:0.35"
     transform="matrix(0.42840837,0,0,0.4213626,381.94288,27.355379)" />
  <path
     id="path1527"
     d="m 1184.6784,-295.819 c -151.8749,0 -274.99502,123.11683 -274.99502,274.990827 0,151.872183 123.12012,275.009173 274.99502,275.009173 151.8809,0 275.0049,-123.13699 275.0049,-275.009173 0,-151.873997 -123.124,-274.990827 -275.0049,-274.990827 z m -17.306,55.16638 c 1.4965,-0.0996 2.9335,0.71649 3.598,2.11112 l 27.1576,57.09331 c 13.2283,0.3884 26.4977,2.66422 39.4386,6.7961 l 43.6318,-43.56997 c 1.2014,-1.20584 3.0814,-1.4351 4.5484,-0.54289 l 34.6862,21.09583 c 1.5057,0.91553 2.1618,2.76283 1.574,4.41492 l -21.0998,59.39849 c 7.966,8.84194 14.7196,18.53754 20.1855,28.83984 l 64.7664,0.0465 c 1.7148,9.1e-4 3.2033,1.17206 3.6105,2.83269 l 9.607,39.448924 c 0.4229,1.709583 -0.4167,3.47418 -2.0085,4.23493 l -81.1249,17.758202 c -9.591,-63.882486 -64.7034,-112.867236 -131.262,-112.867236 -14.7578,0 -28.9519,2.41291 -42.2133,6.858 l -0.6386,-0.39239 -17.3843,-80.23689 c 0.014,-1.71747 1.1866,-3.20642 2.8431,-3.61188 l 39.4414,-9.60766 c 0.2141,-0.0526 0.4293,-0.0858 0.6429,-0.10003 z m -127.7647,58.08625 c 0.1298,-0.007 0.2599,-0.001 0.3899,0.001 0.6236,0.0402 1.2437,0.23864 1.7977,0.60059 l 61.6521,56.16075 c -31.3325,24.28035 -51.5056,62.269836 -51.5056,104.976871 0,38.552418 16.4411,73.262722 42.6884,97.515533 l -0.034,0.715888 -55.4321,61.315498 c -1.472,0.88475 -3.3567,0.65192 -4.5637,-0.55278 l -28.7035,-28.70656 c -1.2498,-1.24468 -1.4523,-3.19104 -0.4851,-4.6681 l 34.6692,-52.868518 c -6.5417,-11.504279 -11.4924,-24.022984 -14.6865,-37.226778 L 965.49719,0.0558356 c -1.65451,-0.3998782 -2.8263,-1.8863587 -2.8263,-3.6033741 V -44.145621 c 0,-1.76203 1.23652,-3.282427 2.95351,-3.638573 l 61.7138,-12.837 c 3.4152,-11.400542 8.1905,-22.208931 14.1524,-32.232328 l -33.6139,-55.359848 c -0.8897,-1.46584 -0.6634,-3.34609 0.5437,-4.55699 l 28.712,-28.70769 c 0.6786,-0.68341 1.5675,-1.05197 2.4754,-1.0886 z m 274.7142,190.3643157 80.4874,18.0226403 c 1.5014,0.833856 2.2401,2.583335 1.7989,4.230698 l -10.5434,39.201445 c -0.4548,1.704097 -2.0407,2.851736 -3.8035,2.751057 l -63.1185,-3.647022 c -6.7022,11.411555 -15.0777,21.951882 -24.924,31.311063 l 17.2165,59.208633 c 0.4795,1.63325 -0.2244,3.39179 -1.7123,4.24898 l -35.1753,20.2674 c -1.5267,0.87963 -3.4623,0.56593 -4.628,-0.74401 l -41.9308,-47.0651 c -11.5833,2.73208 -23.3322,3.99057 -34.9937,3.82841 l -31.1874,56.76278 c -0.8258,1.5027 -2.5695,2.24462 -4.2213,1.80313 L 1118.38,187.43084 c -1.7022,-0.4514 -2.8466,-2.03603 -2.7481,-3.79748 l 21.2045,-80.25102 0.3802,-0.20821 c 14.7397,5.64664 30.739,8.74834 47.4646,8.74834 63.4848,0 116.5511,-44.572953 129.6407,-104.1245948 z"
     style="fill:#64ffff;fill-opacity:1;stroke-width:6.16263676;filter:url(#filter1535);opacity:0.3" />
  <path
     style="fill:#ff9800;fill-opacity:1;stroke-width:2.80119801;filter:url(#filter1525);opacity:0.3"
     d="m 1271.7166,108.77634 c -69.034,0 -124.9977,55.96219 -124.9977,124.99585 0,69.0328 55.9637,125.00415 124.9977,125.00415 69.0368,0 125.0023,-55.97135 125.0023,-125.00415 0,-69.03366 -55.9655,-124.99585 -125.0023,-124.99585 z m -7.8663,25.07563 c 0.6802,-0.0453 1.3333,0.32567 1.6354,0.9596 l 12.3443,25.9515 c 6.013,0.17654 12.0444,1.21101 17.9267,3.08913 l 19.8327,-19.80453 c 0.546,-0.5481 1.4006,-0.65231 2.0674,-0.24677 l 15.7665,9.58902 c 0.6843,0.41615 0.9826,1.25583 0.7153,2.00678 l -9.5907,26.99932 c 3.6209,4.01906 6.6907,8.42616 9.1752,13.10903 l 29.4393,0.0212 c 0.7795,4.1e-4 1.456,0.53276 1.6411,1.28758 l 4.3669,17.93134 c 0.1921,0.77707 -0.1895,1.57917 -0.913,1.92496 l -36.8749,8.07191 c -4.3596,-29.03749 -29.4107,-51.3033 -59.6646,-51.3033 -6.7081,0 -13.1599,1.09678 -19.1877,3.11727 l -0.2905,-0.17835 -7.9019,-36.47132 c 0.01,-0.78066 0.5394,-1.45746 1.2924,-1.64176 l 17.9278,-4.36711 c 0.097,-0.0239 0.1952,-0.0391 0.2923,-0.0455 z m -58.0749,26.40284 c 0.059,-0.004 0.1181,-6.2e-4 0.1773,6.3e-4 0.2835,0.0183 0.5653,0.10847 0.8171,0.27299 l 28.0236,25.52762 c -14.242,11.03654 -23.4116,28.30448 -23.4116,47.71677 0,17.52383 7.4732,33.30124 19.4038,44.32525 l -0.015,0.3254 -25.1964,27.87068 c -0.6692,0.40216 -1.5257,0.29633 -2.0744,-0.25126 l -13.047,-13.04844 c -0.5681,-0.56576 -0.6602,-1.45047 -0.2205,-2.12186 l 15.7587,-24.03117 c -2.9735,-5.22923 -5.2238,-10.91953 -6.6757,-16.92126 l -27.2264,-6.65525 c -0.752,-0.18176 -1.2846,-0.85743 -1.2846,-1.6379 v -18.45367 c 0,-0.80092 0.562,-1.49201 1.3425,-1.6539 l 28.0517,-5.83499 c 1.5524,-5.18206 3.723,-10.09497 6.433,-14.65106 l -15.2791,-25.16359 c -0.4045,-0.66629 -0.3016,-1.52094 0.2472,-2.07135 l 13.0508,-13.04896 c 0.3084,-0.31063 0.7125,-0.47817 1.1253,-0.49481 z m 124.87,86.52925 36.5852,8.19211 c 0.6824,0.37902 1.0183,1.17423 0.8177,1.92303 l -4.7925,17.81884 c -0.2066,0.77459 -0.9274,1.29625 -1.7287,1.25049 l -28.6903,-1.65774 c -3.0464,5.18707 -6.8535,9.97813 -11.3291,14.2323 l 7.8257,26.91301 c 0.218,0.74239 -0.102,1.54173 -0.7782,1.93136 l -15.9889,9.21244 c -0.6939,0.39984 -1.5738,0.25725 -2.1036,-0.33818 l -19.0594,-21.39323 c -5.2651,1.24186 -10.6057,1.8139 -15.9062,1.7402 l -14.1762,25.80125 c -0.3754,0.68305 -1.1679,1.02028 -1.9187,0.81961 l -17.8212,-4.79419 c -0.7737,-0.20518 -1.2939,-0.92547 -1.2491,-1.72613 l 9.6384,-36.47774 0.1728,-0.0946 c 6.6999,2.56665 13.9723,3.97651 21.5748,3.97651 28.8567,0 52.9777,-20.26043 58.9275,-47.32936 z"
     id="path1505" />
  <path
     id="path1537"
     d="m 784.41149,115.76771 c -26.23292,0 -47.49913,21.26564 -47.49913,47.49842 0,26.23246 21.26621,47.50158 47.49913,47.50158 26.23398,0 47.50087,-21.26912 47.50087,-47.50158 0,-26.23278 -21.26689,-47.49842 -47.50087,-47.49842 z m -2.9892,9.52873 c 0.25848,-0.0172 0.50666,0.12376 0.62145,0.36466 l 4.69084,9.86157 c 2.28494,0.067 4.57687,0.46018 6.81214,1.17387 l 7.53643,-7.52573 c 0.20748,-0.20827 0.53223,-0.24787 0.78561,-0.0938 l 5.99127,3.64383 c 0.26004,0.15814 0.37339,0.47721 0.27182,0.76258 l -3.64447,10.25974 c 1.37594,1.52724 2.54247,3.20194 3.48658,4.98143 l 11.18693,0.008 c 0.29621,1.5e-4 0.55328,0.20244 0.62362,0.48927 l 1.65942,6.81392 c 0.073,0.29528 -0.072,0.60008 -0.34694,0.73148 l -14.01246,3.06732 c -1.65665,-11.03424 -11.17607,-19.49525 -22.67255,-19.49525 -2.54908,0 -5.00076,0.41678 -7.29133,1.18457 l -0.11039,-0.0677 -3.00272,-13.8591 c 0.004,-0.29665 0.20497,-0.55383 0.49111,-0.62387 l 6.81257,-1.6595 c 0.0369,-0.009 0.0742,-0.0148 0.11107,-0.0173 z m -22.06846,10.03309 c 0.0224,-0.002 0.0449,-2.4e-4 0.0674,2.4e-4 0.10773,0.007 0.21482,0.0412 0.3105,0.10373 l 10.64897,9.7005 c -5.41196,4.19389 -8.89641,10.7557 -8.89641,18.13237 0,6.65905 2.83982,12.65447 7.37345,16.8436 l -0.006,0.12365 -9.57464,10.59086 c -0.25429,0.15282 -0.57976,0.11261 -0.78827,-0.0955 l -4.95786,-4.9584 c -0.21588,-0.21499 -0.25087,-0.55118 -0.0838,-0.8063 l 5.98831,-9.13185 c -1.12993,-1.98711 -1.98505,-4.14942 -2.53677,-6.43008 l -10.34603,-2.52899 c -0.28576,-0.069 -0.48815,-0.32583 -0.48815,-0.6224 v -7.0124 c 0,-0.30435 0.21356,-0.56696 0.51015,-0.62848 l 10.65965,-2.2173 c 0.58991,-1.96918 1.41474,-3.83609 2.44454,-5.5674 l -5.80606,-9.56217 c -0.15371,-0.25319 -0.11461,-0.57795 0.0939,-0.78711 l 4.9593,-4.9586 c 0.11719,-0.11804 0.27075,-0.18171 0.42761,-0.18803 z m 47.4506,32.88111 13.90238,3.11301 c 0.25931,0.14403 0.38695,0.4462 0.31072,0.73074 l -1.82115,6.77117 c -0.0785,0.29434 -0.35241,0.49257 -0.6569,0.47518 l -10.90232,-0.62994 c -1.15763,1.97109 -2.60433,3.79169 -4.30506,5.40827 l 2.97377,10.22695 c 0.0828,0.2821 -0.0388,0.58586 -0.29572,0.73391 l -6.07578,3.50074 c -0.26368,0.15193 -0.59804,0.0978 -0.79937,-0.12851 l -7.24257,-8.12943 c -2.00074,0.4719 -4.03016,0.68927 -6.04435,0.66127 l -5.38696,9.80447 c -0.14265,0.25957 -0.4438,0.38772 -0.72911,0.31146 l -6.77205,-1.8218 c -0.29401,-0.078 -0.49168,-0.35167 -0.47466,-0.65592 l 3.66259,-13.86154 0.0657,-0.0359 c 2.54596,0.97532 5.30947,1.51108 8.19842,1.51108 10.96555,0 20.13153,-7.69897 22.39245,-17.98517 z"
     style="fill:#ffffff;fill-opacity:0.3372549;stroke-width:1.06445527;filter:url(#filter1549)"
     transform="matrix(1.0526285,0,0,1.05263,-44.291432,-7.3935992)" />
  <path
     style="fill:#ffffff;fill-opacity:0.32156863;stroke-width:0.73951441;filter:url(#filter2687)"
     d="m 874.63168,114.95188 c -18.22489,0 -32.95253,14.77402 -32.89493,32.9989 0.0576,18.22465 14.87866,33.0011 33.10354,33.0011 18.22562,0 32.95373,-14.77645 32.89613,-33.0011 -0.0576,-18.22488 -14.87912,-32.9989 -33.10474,-32.9989 z m -2.05578,6.61995 c 0.17954,-0.012 0.35227,0.0859 0.43255,0.25335 l 3.28053,6.8512 c 1.58758,0.0466 3.18072,0.3197 4.7352,0.81553 l 5.21929,-5.22841 c 0.14368,-0.14469 0.36921,-0.1722 0.54558,-0.0651 l 4.17034,2.5315 c 0.181,0.10987 0.26045,0.33153 0.19051,0.52979 l -2.5094,7.12782 c 0.95926,1.06104 1.77337,2.22451 2.43318,3.46078 l 7.77195,0.005 c 0.20579,1e-4 0.38483,0.14064 0.43432,0.33991 l 1.16782,4.73389 c 0.0514,0.20513 -0.0487,0.41689 -0.23942,0.50818 l -9.72819,2.13098 c -1.17516,-7.6659 -7.8072,-13.54407 -15.79419,-13.54407 -1.77093,0 -3.47327,0.28955 -5.06292,0.82297 l -0.0768,-0.0471 -2.11653,-9.62843 c 0.002,-0.20609 0.14119,-0.38476 0.33982,-0.43342 l 4.72928,-1.15292 c 0.0256,-0.006 0.0515,-0.0102 0.0771,-0.012 z m -15.30966,6.97036 c 0.0156,-0.001 0.0312,-1.6e-4 0.0468,1.7e-4 0.0749,0.005 0.14933,0.0286 0.21594,0.072 l 7.4195,6.73929 c -3.75066,2.91365 -6.15702,7.47238 -6.14082,12.59723 0.0146,4.62629 2.00071,8.79152 5.15957,11.70187 l -0.004,0.0859 -6.62856,7.35786 c -0.17633,0.10617 -0.40253,0.0782 -0.54785,-0.0663 l -3.45528,-3.44478 c -0.15045,-0.14936 -0.17549,-0.38292 -0.06,-0.56017 l 4.14023,-6.34422 c -0.78936,-1.38053 -1.38819,-2.88276 -1.7765,-4.46722 l -7.19328,-1.75698 c -0.19868,-0.0479 -0.33985,-0.22636 -0.34051,-0.4324 l -0.0154,-4.87178 c -6.7e-4,-0.21145 0.14712,-0.39389 0.35303,-0.43663 l 7.40075,-1.54044 c 0.4055,-1.36806 0.97444,-2.66507 1.68608,-3.86788 l -4.05467,-6.64318 c -0.10734,-0.17591 -0.0809,-0.40153 0.0635,-0.54685 l 3.4345,-3.44491 c 0.0812,-0.082 0.1877,-0.12625 0.29667,-0.13064 z m 33.03772,22.84372 9.66528,2.16273 c 0.18047,0.10004 0.26981,0.30999 0.21747,0.50767 l -1.25034,4.70418 c -0.0539,0.20449 -0.24375,0.34221 -0.45533,0.33012 l -7.57559,-0.43763 c -0.79991,1.36938 -1.80098,2.63422 -2.97899,3.75732 l 2.08844,7.10504 c 0.0581,0.19599 -0.0257,0.40702 -0.20384,0.50987 l -4.21336,2.43209 c -0.18285,0.10556 -0.41526,0.068 -0.55563,-0.0893 l -5.0495,-5.64781 c -1.38895,0.32785 -2.79838,0.47885 -4.19776,0.45941 l -3.72097,6.81152 c -0.0985,0.18033 -0.30748,0.26937 -0.50586,0.21639 l -4.70877,-1.26568 c -0.20443,-0.0542 -0.34236,-0.24432 -0.3312,-0.45568 l 2.51409,-9.63013 0.0456,-0.025 c 1.77091,0.67759 3.69198,1.0498 5.69903,1.0498 7.61814,0 13.96914,-5.34876 15.51729,-12.49496 z"
     id="path1551" />
  <path
     id="path1557"
     d="m 935.93163,115.36479 c -11.8738,0 -21.46907,9.62548 -21.43153,21.49929 0.0376,11.87363 9.69366,21.50071 21.56744,21.50071 11.87428,0 21.46987,-9.62708 21.43234,-21.50071 -0.0378,-11.87381 -9.69398,-21.49929 -21.56825,-21.49929 z m -1.33936,4.313 c 0.11696,-0.007 0.2295,0.056 0.28181,0.16506 l 2.13734,4.46367 c 1.03427,0.0303 2.07226,0.20829 3.08504,0.53132 l 3.40047,-3.40639 c 0.0935,-0.0943 0.24052,-0.11219 0.35538,-0.0423 l 2.7171,1.6493 c 0.11791,0.0716 0.16965,0.216 0.1241,0.34516 l -1.63492,4.6439 c 0.62495,0.69127 1.1554,1.44929 1.58528,2.25475 l 5.0635,0.003 c 0.13409,7e-5 0.25072,0.0916 0.28297,0.22146 l 0.76089,3.0842 c 0.0332,0.13363 -0.032,0.2716 -0.15603,0.33108 l -6.33808,1.38836 c -0.76559,-4.99445 -5.0865,-8.82416 -10.29011,-8.82416 -1.15379,0 -2.2629,0.18865 -3.29857,0.53617 l -0.0501,-0.0306 -1.37894,-6.27308 c 10e-4,-0.13427 0.0921,-0.25068 0.22139,-0.28238 l 3.0812,-0.75113 c 0.0167,-0.004 0.0335,-0.006 0.0502,-0.007 z m -9.97449,4.5413 c 0.0105,-6.6e-4 0.0203,-1.2e-4 0.0305,1e-4 0.0488,0.003 0.0972,0.0186 0.14068,0.0468 l 4.83392,4.39075 c -2.44362,1.89828 -4.01139,4.86836 -4.00084,8.20729 0.0105,3.0141 1.30349,5.7278 3.36153,7.62395 l -0.002,0.056 -4.31861,4.79375 c -0.11488,0.0692 -0.26226,0.051 -0.35692,-0.0432 l -2.25118,-2.24432 c -0.098,-0.0974 -0.11434,-0.24949 -0.0391,-0.36496 l 2.69743,-4.13338 c -0.51428,-0.89942 -0.90443,-1.87815 -1.15741,-2.91044 l -4.68654,-1.1447 c -0.12944,-0.0312 -0.22142,-0.14748 -0.22185,-0.28173 l -0.0105,-3.17403 c -4.4e-4,-0.13776 0.0959,-0.25662 0.23001,-0.28448 l 4.82171,-1.00361 c 0.26417,-0.89131 0.63486,-1.73634 1.0985,-2.51998 l -2.64169,-4.32813 c -0.07,-0.11462 -0.0527,-0.26161 0.0414,-0.35629 l 2.23763,-2.24441 c 0.0529,-0.0534 0.12229,-0.0824 0.19329,-0.0851 z m 21.52455,14.88301 6.29709,1.40906 c 0.1176,0.0652 0.17578,0.20197 0.14171,0.33075 l -0.81459,3.06486 c -0.0351,0.13323 -0.15884,0.22295 -0.29671,0.21507 l -4.93562,-0.28512 c -0.52114,0.89217 -1.17331,1.71623 -1.94086,2.44795 l 1.36069,4.62904 c 0.0377,0.12769 -0.017,0.26518 -0.13284,0.3322 l -2.74502,1.58454 c -0.11918,0.0688 -0.27058,0.0443 -0.36199,-0.0581 l -3.28983,-3.67963 c -0.90496,0.2136 -1.8232,0.31198 -2.73492,0.29931 l -2.42427,4.43782 c -0.0641,0.11748 -0.20032,0.17549 -0.32958,0.14097 l -3.06785,-0.82461 c -0.13317,-0.0352 -0.22305,-0.15917 -0.21576,-0.29688 l 1.63796,-6.27417 0.0298,-0.0163 c 1.15375,0.44146 2.40537,0.68396 3.71299,0.68396 4.96336,0 9.10114,-3.4848 10.10974,-8.14066 z"
     style="fill:#fffddf;fill-opacity:0.30588235;stroke-width:0.48180488;filter:url(#filter2779)" />
  <path
     style="fill:#fffddf;fill-opacity:0.29019609;stroke-width:0.31373331;filter:url(#filter2783)"
     d="m 979.71734,114.6224 c -7.73178,0 -13.97985,6.26776 -13.95541,13.99954 0.0245,7.73166 6.31214,14.00046 14.04391,14.00046 7.73198,0 13.98038,-6.2688 13.95598,-14.00046 -0.025,-7.73178 -6.3125,-13.99954 -14.04448,-13.99954 z m -0.87215,2.80846 c 0.0762,-0.004 0.14944,0.0364 0.1835,0.10752 l 1.39176,2.90656 c 0.67348,0.0197 1.34937,0.13565 2.00887,0.34598 l 2.2142,-2.21811 c 0.061,-0.0614 0.1567,-0.073 0.2315,-0.0276 l 1.7692,1.07396 c 0.077,0.0466 0.1109,0.14065 0.081,0.22475 l -1.0645,3.02394 c 0.407,0.45013 0.7524,0.94372 1.0323,1.46821 l 3.2971,0.002 c 0.087,4e-5 0.1633,0.0596 0.1843,0.1442 l 0.4954,2.00831 c 0.021,0.087 -0.021,0.17685 -0.1019,0.21559 l -4.1271,0.90405 c -0.4985,-3.25221 -3.3121,-5.74597 -6.70049,-5.74597 -0.75131,0 -1.47352,0.12285 -2.14791,0.34914 l -0.0326,-0.0199 -0.89791,-4.0848 c 6.5e-4,-0.0874 0.0599,-0.16323 0.14415,-0.18387 l 2.00637,-0.48912 c 0.0112,-0.002 0.0218,-0.003 0.0327,-0.004 z m -6.495,2.95713 c 0.007,-4.3e-4 0.0132,-8e-5 0.0198,6e-5 0.0318,0.002 0.0633,0.0122 0.0916,0.0305 l 3.14766,2.85909 c -1.59119,1.23609 -2.61206,3.17011 -2.60519,5.34428 0.007,1.96268 0.84878,3.72974 2.1889,4.96444 l -10e-4,0.0364 -2.81213,3.12151 c -0.0748,0.045 -0.17076,0.0333 -0.23241,-0.0281 l -1.46587,-1.46142 c -0.0638,-0.0634 -0.0745,-0.16245 -0.0254,-0.23764 l 1.75647,-2.6915 c -0.33488,-0.58567 -0.58893,-1.22299 -0.75365,-1.89518 l -3.05171,-0.74538 c -0.0843,-0.0203 -0.14418,-0.0961 -0.14446,-0.18346 l -0.007,-2.06681 c -2.8e-4,-0.0897 0.0625,-0.16709 0.14978,-0.18524 l 3.13972,-0.65352 c 0.17202,-0.58037 0.4134,-1.13064 0.71529,-1.64091 l -1.72016,-2.81832 c -0.0456,-0.0746 -0.0343,-0.17034 0.027,-0.232 l 1.45707,-1.46148 c 0.0345,-0.0348 0.0796,-0.0538 0.12585,-0.0554 z m 14.01603,9.69126 4.1003,0.91753 c 0.076,0.0425 0.1145,0.13152 0.092,0.21537 l -0.5304,1.99573 c -0.022,0.0868 -0.103,0.14518 -0.1932,0.14004 l -3.2139,-0.18567 c -0.3393,0.58096 -0.764,1.11756 -1.2638,1.59402 l 0.8861,3.01427 c 0.025,0.0831 -0.011,0.17267 -0.086,0.2163 l -1.7876,1.0318 c -0.077,0.0448 -0.1761,0.0289 -0.2356,-0.0378 l -2.1422,-2.39604 c -0.5893,0.13909 -1.18725,0.20316 -1.78093,0.1949 l -1.57859,2.88975 c -0.0418,0.0765 -0.13044,0.11427 -0.21461,0.0918 l -1.99767,-0.53695 c -0.0867,-0.023 -0.14524,-0.1036 -0.1405,-0.19333 l 1.06659,-4.0855 0.0194,-0.0101 c 0.75129,0.28746 1.56629,0.44537 2.41777,0.44537 3.23194,0 5.92624,-2.26918 6.58304,-5.30089 z"
     id="path1563" />
  <path
     id="path1569"
     d="m 1002.8531,115.20195 c -5.24664,0 -9.48629,4.25312 -9.46973,9.49969 0.0163,5.24648 4.28319,9.50031 9.52983,9.50031 5.2467,0 9.4867,-4.25383 9.4701,-9.50031 -0.017,-5.24657 -4.2835,-9.49969 -9.5302,-9.49969 z m -0.5918,1.90574 c 0.052,-0.003 0.1014,0.0247 0.1246,0.073 l 0.9443,1.97231 c 0.457,0.0134 0.9157,0.092 1.3632,0.23477 l 1.5025,-1.50514 c 0.041,-0.0417 0.1063,-0.0495 0.1571,-0.0187 l 1.2005,0.72876 c 0.052,0.0316 0.075,0.0954 0.055,0.1525 l -0.7224,2.05196 c 0.2762,0.30545 0.5106,0.64038 0.7005,0.99629 l 2.2373,9.5e-4 c 0.059,3e-5 0.1109,0.0404 0.1251,0.0979 l 0.3362,1.36278 c 0.014,0.059 -0.014,0.12 -0.069,0.14629 l -2.8005,0.61347 c -0.3383,-2.20686 -2.2475,-3.89905 -4.5468,-3.89905 -0.5098,0 -0.9998,0.0833 -1.4575,0.23691 l -0.022,-0.0135 -0.6093,-2.77183 c 4e-4,-0.0593 0.041,-0.11076 0.098,-0.12477 l 1.3615,-0.3319 c 0.01,-9.6e-4 0.015,-0.002 0.022,-0.003 z m -4.40734,2.00662 c 0.01,-2.8e-4 0.01,-5e-5 0.014,4e-5 0.022,9.6e-4 0.043,0.009 0.062,0.0207 l 2.13594,1.9401 c -1.07984,0.83878 -1.77244,2.15114 -1.76784,3.62648 0.01,1.33182 0.5759,2.53089 1.4853,3.36873 v 0.0247 l -1.9082,2.11817 c -0.051,0.0305 -0.1159,0.0226 -0.1577,-0.0191 l -0.9947,-0.99168 c -0.043,-0.043 -0.05,-0.11023 -0.017,-0.16125 l 1.1919,-1.82638 c -0.2272,-0.39742 -0.3996,-0.82988 -0.5114,-1.28601 l -2.0708,-0.5058 c -0.057,-0.0137 -0.0978,-0.0652 -0.098,-0.12448 l -0.007,-1.40248 c -2e-4,-0.0609 0.0421,-0.11338 0.10158,-0.12571 l 2.13062,-0.44346 c 0.1167,-0.39381 0.2805,-0.76721 0.4854,-1.11346 l -1.1673,-1.91244 c -0.031,-0.0506 -0.023,-0.11558 0.018,-0.15743 l 0.9887,-0.99172 c 0.023,-0.0237 0.054,-0.0365 0.085,-0.0376 z m 9.51094,6.57621 2.7823,0.62262 c 0.052,0.0288 0.078,0.0893 0.062,0.14614 l -0.3599,1.35425 c -0.015,0.0589 -0.07,0.0985 -0.1311,0.095 l -2.1808,-0.12599 c -0.2303,0.39423 -0.5185,0.75834 -0.8576,1.08166 l 0.6013,2.0454 c 0.017,0.0564 -0.01,0.11717 -0.058,0.14677 l -1.213,0.70016 c -0.052,0.0304 -0.1195,0.0196 -0.1599,-0.0257 l -1.4536,-1.62588 c -0.3999,0.0944 -0.8057,0.13786 -1.2085,0.13225 l -1.0712,1.96091 c -0.029,0.0519 -0.088,0.0775 -0.1456,0.0623 l -1.3556,-0.36436 c -0.059,-0.0156 -0.099,-0.0703 -0.095,-0.13119 l 0.7238,-2.7723 0.013,-0.007 c 0.5098,0.19506 1.0628,0.30222 1.6405,0.30222 2.1932,0 4.0214,-1.5398 4.4671,-3.59703 z"
     style="fill:#fffbc6;fill-opacity:0.26666668;stroke-width:0.21289039;filter:url(#filter2787)" />
  <path
     style="fill:#fffaaa;fill-opacity:0.25098041;stroke-width:0.15686664;filter:url(#filter2873)"
     d="m 1015.4513,115.26332 c -3.866,0 -6.9899,3.13388 -6.9777,6.99976 0.012,3.86584 3.156,7.00024 7.0219,7.00024 3.866,0 6.9902,-3.1344 6.978,-7.00024 -0.013,-3.86588 -3.1562,-6.99976 -7.0222,-6.99976 z m -0.4361,1.40423 c 0.038,-0.002 0.075,0.0181 0.092,0.0538 l 0.6958,1.45329 c 0.3367,0.01 0.6747,0.0677 1.0045,0.17299 l 1.1071,-1.10905 c 0.03,-0.0308 0.078,-0.0365 0.1157,-0.0137 l 0.8846,0.53698 c 0.038,0.0234 0.055,0.0704 0.041,0.11236 l -0.5323,1.51197 c 0.2036,0.22507 0.3763,0.47187 0.5162,0.73411 l 1.6485,7e-4 c 0.043,3e-5 0.082,0.0298 0.092,0.0722 l 0.2477,1.00415 c 0.01,0.0435 -0.01,0.0884 -0.051,0.1078 l -2.0635,0.45203 c -0.2493,-1.62612 -1.6561,-2.87299 -3.3503,-2.87299 -0.3756,0 -0.7367,0.0614 -1.0739,0.17457 l -0.016,-0.01 -0.4489,-2.0424 c 3e-4,-0.0437 0.03,-0.0816 0.072,-0.0919 l 1.0032,-0.24455 c 0.01,-7.1e-4 0.011,-0.002 0.016,-0.002 z m -3.2475,1.47857 c 0.01,-2.1e-4 0.01,-4e-5 0.01,2e-5 0.016,7.1e-4 0.032,0.006 0.046,0.0152 l 1.5738,1.42955 c -0.7956,0.61804 -1.3059,1.58506 -1.3026,2.67214 0.01,0.98134 0.4244,1.86487 1.0945,2.48223 v 0.0181 l -1.4061,1.56076 c -0.038,0.0224 -0.085,0.0166 -0.1162,-0.014 l -0.7329,-0.7307 c -0.032,-0.0317 -0.037,-0.0813 -0.012,-0.11881 l 0.8782,-1.34577 c -0.1674,-0.29283 -0.2944,-0.61148 -0.3768,-0.94758 l -1.5259,-0.37269 c -0.042,-0.0101 -0.072,-0.048 -0.072,-0.0917 l -0.01,-1.0334 c -2e-4,-0.0449 0.031,-0.0836 0.075,-0.0926 l 1.5699,-0.32677 c 0.086,-0.29018 0.2067,-0.56531 0.3577,-0.82044 l -0.8601,-1.40916 c -0.023,-0.0373 -0.017,-0.0852 0.013,-0.11601 l 0.7285,-0.73073 c 0.017,-0.0174 0.04,-0.0269 0.063,-0.0278 z m 7.008,4.84561 2.0502,0.45879 c 0.038,0.0212 0.057,0.0658 0.046,0.10768 l -0.2651,0.99786 c -0.011,0.0434 -0.052,0.0727 -0.097,0.0699 l -1.6069,-0.0928 c -0.1697,0.29049 -0.3821,0.55878 -0.632,0.79702 l 0.4431,1.50713 c 0.013,0.0416 -0.01,0.0864 -0.043,0.10815 l -0.8938,0.51591 c -0.038,0.0224 -0.088,0.0144 -0.1178,-0.0189 l -1.0711,-1.19803 c -0.2947,0.0695 -0.5937,0.10159 -0.8905,0.0974 l -0.7893,1.44489 c -0.021,0.0383 -0.065,0.0571 -0.1073,0.0459 l -0.9988,-0.26848 c -0.043,-0.0114 -0.073,-0.0518 -0.07,-0.0967 l 0.5333,-2.04274 0.01,-0.005 c 0.3756,0.14373 0.7831,0.22269 1.2087,0.22269 1.6161,0 2.9632,-1.13459 3.2916,-2.65045 z"
     id="path2791" />
  <path
     id="path2879"
     d="m 1025.4513,115.26332 c -3.866,0 -6.9899,3.13388 -6.9777,6.99976 0.012,3.86584 3.156,7.00024 7.0219,7.00024 3.866,0 6.9902,-3.1344 6.978,-7.00024 -0.013,-3.86588 -3.1562,-6.99976 -7.0222,-6.99976 z m -0.4361,1.40423 c 0.038,-0.002 0.075,0.0181 0.092,0.0538 l 0.6958,1.45329 c 0.3367,0.01 0.6747,0.0677 1.0045,0.17299 l 1.1071,-1.10905 c 0.03,-0.0308 0.078,-0.0365 0.1157,-0.0137 l 0.8846,0.53698 c 0.038,0.0234 0.055,0.0704 0.041,0.11236 l -0.5323,1.51197 c 0.2036,0.22507 0.3763,0.47187 0.5162,0.73411 l 1.6485,7e-4 c 0.043,3e-5 0.082,0.0298 0.092,0.0722 l 0.2477,1.00415 c 0.01,0.0435 -0.01,0.0884 -0.051,0.1078 l -2.0635,0.45203 c -0.2493,-1.62612 -1.6561,-2.87299 -3.3503,-2.87299 -0.3756,0 -0.7367,0.0614 -1.0739,0.17457 l -0.016,-0.01 -0.4489,-2.0424 c 3e-4,-0.0437 0.03,-0.0816 0.072,-0.0919 l 1.0032,-0.24455 c 0.01,-7.1e-4 0.011,-0.002 0.016,-0.002 z m -3.2475,1.47857 c 0.01,-2.1e-4 0.01,-4e-5 0.01,2e-5 0.016,7.1e-4 0.032,0.006 0.046,0.0152 l 1.5738,1.42955 c -0.7956,0.61804 -1.3059,1.58506 -1.3026,2.67214 0.01,0.98134 0.4244,1.86487 1.0945,2.48223 v 0.0181 l -1.4061,1.56076 c -0.038,0.0224 -0.085,0.0166 -0.1162,-0.014 l -0.7329,-0.7307 c -0.032,-0.0317 -0.037,-0.0813 -0.012,-0.11881 l 0.8782,-1.34577 c -0.1674,-0.29283 -0.2944,-0.61148 -0.3768,-0.94758 l -1.5259,-0.37269 c -0.042,-0.0101 -0.072,-0.048 -0.072,-0.0917 l -0.01,-1.0334 c -2e-4,-0.0449 0.031,-0.0836 0.075,-0.0926 l 1.5699,-0.32677 c 0.086,-0.29018 0.2067,-0.56531 0.3577,-0.82044 l -0.8601,-1.40916 c -0.023,-0.0373 -0.017,-0.0852 0.013,-0.11601 l 0.7285,-0.73073 c 0.017,-0.0174 0.04,-0.0269 0.063,-0.0278 z m 7.008,4.84561 2.0502,0.45879 c 0.038,0.0212 0.057,0.0658 0.046,0.10768 l -0.2651,0.99786 c -0.011,0.0434 -0.052,0.0727 -0.097,0.0699 l -1.6069,-0.0928 c -0.1697,0.29049 -0.3821,0.55878 -0.632,0.79702 l 0.4431,1.50713 c 0.013,0.0416 -0.01,0.0864 -0.043,0.10815 l -0.8938,0.51591 c -0.038,0.0224 -0.088,0.0144 -0.1178,-0.0189 l -1.0711,-1.19803 c -0.2947,0.0695 -0.5937,0.10159 -0.8905,0.0974 l -0.7893,1.44489 c -0.021,0.0383 -0.065,0.0571 -0.1073,0.0459 l -0.9988,-0.26848 c -0.043,-0.0114 -0.073,-0.0518 -0.07,-0.0967 l 0.5333,-2.04274 0.01,-0.005 c 0.3756,0.14373 0.7831,0.22269 1.2087,0.22269 1.6161,0 2.9632,-1.13459 3.2916,-2.65045 z"
     style="fill:#fffaaa;fill-opacity:0.23529412;stroke-width:0.15686664;filter:url(#filter2885)"
     transform="matrix(0.76236289,0,0,0.7624098,241.85623,27.139773)" />
  <path
     style="fill:#fdf790;fill-opacity:0.21960784;stroke-width:0.08963772;filter:url(#filter3239)"
     d="m 1028.5662,115.30027 c -2.2092,0 -3.9942,1.7908 -3.9873,3.99986 0.01,2.20905 1.8035,4.00014 4.0125,4.00014 2.2091,0 3.9944,-1.79109 3.9875,-4.00014 -0.01,-2.20906 -1.8037,-3.99986 -4.0127,-3.99986 z m -0.2493,0.80241 c 0.021,-9.4e-4 0.043,0.0104 0.053,0.0308 l 0.3975,0.83044 c 0.1924,0.006 0.3855,0.0387 0.574,0.0988 l 0.6327,-0.63374 c 0.017,-0.0176 0.044,-0.0208 0.066,-0.008 l 0.5055,0.30685 c 0.021,0.0134 0.031,0.0402 0.023,0.0642 l -0.3042,0.86399 c 0.1164,0.12861 0.2152,0.26964 0.2951,0.41949 l 0.9419,4e-4 c 0.025,2e-5 0.047,0.017 0.053,0.0412 l 0.1416,0.57378 c 0.01,0.0249 -0.01,0.0506 -0.029,0.0616 l -1.1791,0.2583 c -0.1424,-0.9292 -0.9464,-1.64171 -1.9145,-1.64171 -0.2145,0 -0.4209,0.035 -0.6136,0.0998 l -0.01,-0.006 -0.2567,-1.16709 c 3e-4,-0.025 0.017,-0.0466 0.042,-0.0525 l 0.5734,-0.13973 c 0.01,-4.2e-4 0.01,-9.4e-4 0.01,-9.4e-4 z m -1.8557,0.84491 c 0.01,-1.3e-4 0.01,-3e-5 0.01,10e-6 0.01,4e-4 0.018,0.004 0.027,0.008 l 0.8993,0.81689 c -0.4545,0.35316 -0.7462,0.90575 -0.7442,1.52693 0.01,0.56078 0.2424,1.06564 0.6253,1.41842 v 0.0104 l -0.8035,0.89185 c -0.021,0.0128 -0.049,0.01 -0.067,-0.008 l -0.4189,-0.41753 c -0.018,-0.0182 -0.02,-0.0465 -0.01,-0.0679 l 0.5019,-0.76901 c -0.096,-0.16734 -0.1683,-0.34943 -0.2154,-0.54148 l -0.872,-0.21296 c -0.024,-0.006 -0.042,-0.0274 -0.042,-0.0524 l -0.01,-0.59051 c -2e-4,-0.0257 0.018,-0.0477 0.043,-0.0529 l 0.897,-0.18673 c 0.049,-0.16582 0.1182,-0.32304 0.2045,-0.46882 l -0.4915,-0.80524 c -0.013,-0.0213 -0.01,-0.0487 0.01,-0.0663 l 0.4162,-0.41756 c 0.01,-0.01 0.022,-0.0153 0.036,-0.0158 z m 4.0046,2.76892 1.1715,0.26216 c 0.021,0.0121 0.033,0.0376 0.027,0.0615 l -0.1515,0.57021 c -0.01,0.0249 -0.03,0.0415 -0.055,0.0399 l -0.9183,-0.053 c -0.097,0.16599 -0.2183,0.3193 -0.361,0.45544 l 0.2531,0.86122 c 0.01,0.0238 -0.01,0.0493 -0.025,0.0617 l -0.5108,0.2948 c -0.021,0.0128 -0.05,0.008 -0.068,-0.0108 l -0.6119,-0.68458 c -0.1685,0.0397 -0.3393,0.0581 -0.5089,0.0557 l -0.4511,0.82564 c -0.012,0.0218 -0.036,0.0327 -0.061,0.0263 l -0.5707,-0.15342 c -0.025,-0.007 -0.042,-0.0297 -0.041,-0.0553 l 0.3047,-1.16728 0.01,-0.003 c 0.2147,0.0822 0.4475,0.12726 0.6907,0.12726 0.9236,0 1.6933,-0.64835 1.8809,-1.51455 z"
     id="path2889" />
  <path
     id="path3243"
     d="m 1033.14,115.35406 c -1.7398,0 -3.1454,1.41026 -3.14,3.14989 0.01,1.73962 1.4202,3.15011 3.1598,3.15011 1.7397,0 3.1456,-1.41049 3.1402,-3.15011 -0.01,-1.73963 -1.4204,-3.14989 -3.16,-3.14989 z m -0.1963,0.63189 c 0.016,-7.3e-4 0.034,0.008 0.042,0.0243 l 0.313,0.65396 c 0.1515,0.005 0.3036,0.0304 0.452,0.0778 l 0.4983,-0.49907 c 0.013,-0.0139 0.035,-0.0164 0.052,-0.006 l 0.398,0.24165 c 0.017,0.0105 0.025,0.0316 0.018,0.0506 l -0.2396,0.68039 c 0.092,0.10128 0.1695,0.21234 0.2324,0.33035 l 0.7417,3.1e-4 c 0.02,2e-5 0.037,0.0134 0.042,0.0324 l 0.1115,0.45185 c 0.01,0.0196 -0.01,0.0399 -0.023,0.0485 l -0.9285,0.20341 c -0.1121,-0.73174 -0.7453,-1.29284 -1.5077,-1.29284 -0.1689,0 -0.3314,0.0276 -0.4832,0.0786 l -0.01,-0.005 -0.2022,-0.91909 c 3e-4,-0.0197 0.013,-0.0367 0.033,-0.0413 l 0.4515,-0.11004 c 0.01,-3.3e-4 0.01,-7.4e-4 0.01,-7.4e-4 z m -1.4614,0.66537 c 0.01,-1e-4 0.01,-2e-5 0.01,1e-5 0.01,3.2e-4 0.014,0.003 0.021,0.006 l 0.7082,0.64331 c -0.3579,0.27811 -0.5876,0.71327 -0.586,1.20245 0.01,0.44162 0.1909,0.8392 0.4924,1.11701 v 0.008 l -0.6328,0.70233 c -0.017,0.0101 -0.039,0.008 -0.053,-0.006 l -0.3299,-0.3288 c -0.014,-0.0144 -0.016,-0.0366 -0.01,-0.0534 l 0.3953,-0.6056 c -0.076,-0.13178 -0.1326,-0.27517 -0.1697,-0.42641 l -0.6867,-0.16771 c -0.019,-0.005 -0.033,-0.0216 -0.033,-0.0413 l -0.01,-0.46503 c -2e-4,-0.0202 0.014,-0.0376 0.034,-0.0416 l 0.7063,-0.14706 c 0.039,-0.13058 0.093,-0.25438 0.1611,-0.36918 l -0.3871,-0.63414 c -0.01,-0.0168 -0.01,-0.0384 0.01,-0.0521 l 0.3278,-0.32884 c 0.01,-0.008 0.017,-0.012 0.028,-0.0125 z m 3.1536,2.18053 0.9226,0.20645 c 0.016,0.01 0.026,0.0296 0.021,0.0484 l -0.1193,0.44905 c -0.01,0.0196 -0.024,0.0327 -0.043,0.0314 l -0.7232,-0.0418 c -0.076,0.13072 -0.1719,0.25146 -0.2842,0.35866 l 0.1993,0.67821 c 0.01,0.0187 -0.01,0.0389 -0.02,0.0486 l -0.4023,0.23215 c -0.017,0.0101 -0.039,0.006 -0.054,-0.009 l -0.4819,-0.53911 c -0.1327,0.0312 -0.2672,0.0457 -0.4007,0.0438 l -0.3553,0.65019 c -0.01,0.0172 -0.028,0.0258 -0.048,0.0207 l -0.4494,-0.12082 c -0.02,-0.006 -0.033,-0.0234 -0.032,-0.0435 l 0.2399,-0.91923 0.01,-0.002 c 0.1691,0.0647 0.3524,0.10022 0.5439,0.10022 0.7274,0 1.3335,-0.51058 1.4812,-1.19271 z"
     style="fill:#fff86e;fill-opacity:0.21960784;stroke-width:0.07058953;filter:url(#filter3249)" />
  <path
     style="fill:#fff86e;fill-opacity:0.21960784;stroke-width:0.05378223;filter:url(#filter3279)"
     d="m 1036.9201,115.451 c -1.3255,0 -2.3964,1.07448 -2.3923,2.39992 0.01,1.32543 1.082,2.40008 2.4075,2.40008 1.3254,0 2.3966,-1.07465 2.3925,-2.40008 -0.01,-1.32544 -1.0822,-2.39992 -2.4077,-2.39992 z m -0.1495,0.48144 c 0.013,-5.6e-4 0.026,0.006 0.032,0.0185 l 0.2385,0.49826 c 0.1154,0.004 0.2313,0.0231 0.3443,0.0592 l 0.3797,-0.38025 c 0.01,-0.0106 0.027,-0.0126 0.039,-0.005 l 0.3031,0.18411 c 0.014,0.008 0.019,0.0241 0.014,0.0385 l -0.1825,0.51839 c 0.07,0.0771 0.1291,0.16177 0.177,0.25169 l 0.5652,2.4e-4 c 0.015,1e-5 0.028,0.0102 0.032,0.0247 l 0.086,0.34428 c 0.01,0.015 -0.01,0.0304 -0.017,0.037 l -0.7074,0.15498 c -0.085,-0.55751 -0.5679,-0.98502 -1.1487,-0.98502 -0.1287,0 -0.2525,0.021 -0.3681,0.0598 l -0.01,-0.004 -0.1541,-0.70027 c 3e-4,-0.015 0.01,-0.028 0.025,-0.0315 l 0.344,-0.0838 c 0.01,-2.5e-4 0.01,-5.7e-4 0.01,-5.7e-4 z m -1.1135,0.50695 c 0.01,-8e-5 0.01,-2e-5 0.01,1e-5 0.01,2.5e-4 0.011,0.002 0.016,0.005 l 0.5396,0.49013 c -0.2728,0.2119 -0.4478,0.54344 -0.4465,0.91616 0.01,0.33647 0.1454,0.63938 0.3751,0.85105 v 0.006 l -0.4821,0.53511 c -0.013,0.008 -0.03,0.006 -0.04,-0.005 l -0.2513,-0.25051 c -0.011,-0.011 -0.013,-0.0279 -0.01,-0.0407 l 0.3011,-0.46141 c -0.058,-0.10039 -0.101,-0.20965 -0.1293,-0.32488 l -0.5232,-0.12778 c -0.014,-0.004 -0.025,-0.0165 -0.025,-0.0314 l -0.01,-0.35431 c -2e-4,-0.0154 0.011,-0.0286 0.026,-0.0318 l 0.5381,-0.11204 c 0.03,-0.0995 0.071,-0.19382 0.1227,-0.28128 l -0.295,-0.48315 c -0.01,-0.0129 -0.01,-0.0292 0.01,-0.0397 l 0.2497,-0.25055 c 0.01,-0.006 0.013,-0.009 0.021,-0.009 z m 2.4028,1.66135 0.7029,0.15729 c 0.013,0.008 0.02,0.0226 0.016,0.0369 l -0.091,0.34214 c -0.01,0.015 -0.018,0.0249 -0.033,0.024 l -0.5509,-0.0319 c -0.058,0.0996 -0.1311,0.19158 -0.2166,0.27326 l 0.1519,0.51673 c 0.01,0.0142 -0.01,0.0297 -0.015,0.037 l -0.3065,0.17688 c -0.013,0.008 -0.03,0.005 -0.041,-0.007 l -0.3672,-0.41075 c -0.1011,0.0237 -0.2035,0.0348 -0.3053,0.0334 l -0.2707,0.49538 c -0.01,0.0132 -0.021,0.0196 -0.037,0.0158 l -0.3423,-0.0921 c -0.015,-0.005 -0.025,-0.0178 -0.024,-0.0332 l 0.1828,-0.70036 0.01,-0.002 c 0.1288,0.0493 0.2685,0.0763 0.4144,0.0763 0.5542,0 1.016,-0.38901 1.1285,-0.90873 z"
     id="path3253"
     transform="matrix(1.036088,0,0,1.0442922,-37.547287,-5.3650172)" />
  <path
     id="path3283"
     d="m 1039.0486,115.25 c -1.1598,0 -2.0968,0.94017 -2.0932,2.09994 0.01,1.15975 0.9467,2.10006 2.1065,2.10006 1.1598,0 2.097,-0.94031 2.0935,-2.10006 -0.01,-1.15977 -0.947,-2.09994 -2.1068,-2.09994 z m -0.1308,0.42126 c 0.012,-4.8e-4 0.023,0.005 0.028,0.0162 l 0.2088,0.43598 c 0.1009,0.004 0.2023,0.0202 0.3012,0.0518 l 0.3322,-0.33271 c 0.01,-0.009 0.024,-0.011 0.034,-0.004 l 0.2652,0.16109 c 0.012,0.007 0.017,0.0211 0.012,0.0337 l -0.1597,0.45359 c 0.062,0.0674 0.113,0.14156 0.1549,0.22023 l 0.4945,2.1e-4 c 0.014,10e-6 0.024,0.009 0.028,0.0216 l 0.075,0.30125 c 0.01,0.0131 -0.01,0.0266 -0.015,0.0324 l -0.6191,0.13561 c -0.074,-0.48783 -0.4968,-0.8619 -1.005,-0.8619 -0.1127,0 -0.2209,0.0183 -0.3221,0.0523 l -0.01,-0.004 -0.1348,-0.61274 c 3e-4,-0.0131 0.01,-0.0245 0.022,-0.0276 l 0.301,-0.0734 c 0.01,-2.1e-4 0.01,-4.9e-4 0.01,-4.9e-4 z m -0.9743,0.44358 c 0.01,-7e-5 0.01,-1e-5 0.01,1e-5 0.01,2.2e-4 0.01,0.002 0.014,0.004 l 0.4722,0.42885 c -0.2387,0.18542 -0.3918,0.47551 -0.3907,0.80164 0.01,0.29442 0.1273,0.55946 0.3282,0.74468 v 0.005 l -0.4219,0.46823 c -0.011,0.007 -0.026,0.005 -0.035,-0.004 l -0.2199,-0.2192 c -0.01,-0.01 -0.011,-0.0244 -0.01,-0.0356 l 0.2635,-0.40373 c -0.051,-0.0878 -0.088,-0.18345 -0.1131,-0.28427 l -0.4578,-0.11182 c -0.012,-0.004 -0.022,-0.0145 -0.022,-0.0275 l -0.01,-0.31002 c -2e-4,-0.0135 0.01,-0.025 0.023,-0.0279 l 0.4708,-0.0981 c 0.026,-0.087 0.062,-0.16959 0.1073,-0.24612 l -0.2581,-0.42276 c -0.01,-0.0113 -0.01,-0.0256 0.01,-0.0347 l 0.2185,-0.21923 c 0.01,-0.005 0.012,-0.008 0.018,-0.008 z m 2.1024,1.45368 0.6151,0.13763 c 0.012,0.007 0.018,0.0198 0.014,0.0323 l -0.079,0.29938 c -0.01,0.0131 -0.016,0.0218 -0.029,0.021 l -0.4821,-0.028 c -0.051,0.0871 -0.1147,0.16763 -0.1895,0.23909 l 0.1329,0.45215 c 0.01,0.0124 -0.01,0.026 -0.014,0.0324 l -0.2681,0.15477 c -0.012,0.007 -0.026,0.004 -0.036,-0.006 l -0.3214,-0.3594 c -0.088,0.0207 -0.178,0.0304 -0.2671,0.0292 l -0.2368,0.43346 c -0.01,0.0116 -0.019,0.0172 -0.032,0.0138 l -0.2995,-0.0806 c -0.014,-0.004 -0.022,-0.0156 -0.021,-0.029 l 0.16,-0.61281 0.01,-0.002 c 0.1127,0.0431 0.2349,0.0668 0.3626,0.0668 0.4849,0 0.889,-0.34039 0.9874,-0.79514 z"
     style="fill:#fff86e;fill-opacity:0.20392157;stroke-width:0.04705945;filter:url(#filter3285)" />
  <path
     style="fill:#fff75b;fill-opacity:0.18823529;stroke-width:0.03921601;filter:url(#filter3323)"
     d="m 1040.6997,115.3 c -0.9665,0 -1.7473,0.78348 -1.7443,1.74995 0.01,0.96646 0.7889,1.75005 1.7554,1.75005 0.9665,0 1.7474,-0.78359 1.7446,-1.75005 -0.01,-0.96647 -0.7892,-1.74995 -1.7557,-1.74995 z m -0.109,0.35105 c 0.01,-4.1e-4 0.019,0.004 0.023,0.0135 l 0.174,0.36331 c 0.084,0.003 0.1687,0.0169 0.2511,0.0431 l 0.2768,-0.27725 c 0.01,-0.007 0.02,-0.009 0.029,-0.003 l 0.221,0.13424 c 0.01,0.006 0.014,0.0176 0.01,0.0281 l -0.1331,0.37799 c 0.052,0.0562 0.094,0.11797 0.1291,0.18352 l 0.4121,1.9e-4 c 0.012,0 0.02,0.007 0.023,0.018 l 0.063,0.25103 c 0.01,0.011 -0.01,0.0222 -0.013,0.027 l -0.516,0.113 c -0.062,-0.40652 -0.414,-0.71825 -0.8375,-0.71825 -0.094,0 -0.184,0.0152 -0.2684,0.0436 l -0.01,-0.003 -0.1123,-0.51062 c 2e-4,-0.011 0.01,-0.0204 0.018,-0.023 l 0.2508,-0.0612 c 0.01,-1.8e-4 0.01,-4.2e-4 0.01,-4.2e-4 z m -0.8119,0.36965 c 0.01,-6e-5 0.01,-1e-5 0.01,10e-6 0.01,1.8e-4 0.01,0.002 0.012,0.003 l 0.3935,0.35738 c -0.1989,0.15451 -0.3265,0.39626 -0.3256,0.66803 0.01,0.24535 0.1061,0.46621 0.2735,0.62056 v 0.004 l -0.3515,0.39019 c -0.01,0.006 -0.022,0.004 -0.03,-0.003 l -0.1833,-0.18266 c -0.01,-0.008 -0.01,-0.0204 -0.01,-0.0297 l 0.2196,-0.33643 c -0.042,-0.0731 -0.074,-0.15288 -0.094,-0.23691 l -0.3815,-0.0932 c -0.01,-0.003 -0.018,-0.0121 -0.018,-0.0228 l -0.01,-0.25836 c -2e-4,-0.0112 0.01,-0.0208 0.019,-0.0233 l 0.3923,-0.0818 c 0.022,-0.0725 0.052,-0.14132 0.089,-0.20511 l -0.2151,-0.35229 c -0.01,-0.009 -0.01,-0.0214 0.01,-0.0289 l 0.1821,-0.18269 c 0.01,-0.004 0.01,-0.007 0.015,-0.007 z m 1.752,1.2114 0.5126,0.11469 c 0.01,0.006 0.015,0.0165 0.012,0.0269 l -0.065,0.24948 c -0.01,0.011 -0.013,0.0182 -0.024,0.0174 l -0.4017,-0.0234 c -0.042,0.0725 -0.095,0.13969 -0.1579,0.19925 l 0.1107,0.37679 c 0.01,0.0103 -0.01,0.0216 -0.012,0.027 l -0.2234,0.12897 c -0.01,0.006 -0.022,0.003 -0.03,-0.005 l -0.2678,-0.29949 c -0.074,0.0172 -0.1483,0.0253 -0.2226,0.0243 l -0.1974,0.36123 c -0.01,0.01 -0.016,0.0144 -0.027,0.0115 l -0.2496,-0.0672 c -0.012,-0.003 -0.018,-0.0131 -0.017,-0.0241 l 0.1334,-0.51068 0.01,-0.002 c 0.094,0.0359 0.1957,0.0557 0.3022,0.0557 0.4041,0 0.7408,-0.28367 0.8228,-0.66262 z"
     id="path3289" />
  <path
     style="fill:#6c6cff;fill-opacity:1;stroke-width:4.36986923;filter:url(#filter1497);opacity:0.5"
     d="m 756.31354,307.89345 c -107.69314,0 -194.9965,87.30102 -194.9965,194.99351 0,107.69118 87.30336,195.00649 194.9965,195.00649 107.69738,0 195.00348,-87.31531 195.00348,-195.00649 0,-107.69249 -87.3061,-194.99351 -195.00348,-194.99351 z m -12.27152,39.11798 c 1.06106,-0.0706 2.08004,0.50805 2.55123,1.49698 l 19.25717,40.48434 c 9.3802,0.27541 18.7893,1.88917 27.9655,4.81905 l 30.9391,-30.89507 c 0.8519,-0.85504 2.1849,-1.01761 3.2252,-0.38495 l 24.5956,14.95885 c 1.0676,0.6492 1.5329,1.9591 1.116,3.13058 l -14.9615,42.11894 c 5.6486,6.26973 10.4374,13.1448 14.3133,20.45008 l 45.9253,0.033 c 1.2159,6.4e-4 2.2714,0.8311 2.5602,2.00863 l 6.8122,27.97288 c 0.2999,1.21225 -0.2956,2.46351 -1.4243,3.00295 l -57.5248,12.59218 c -6.8009,-45.29849 -45.8806,-80.03314 -93.07668,-80.03314 -10.46469,0 -20.52953,1.71097 -29.93301,4.86294 l -0.45295,-0.27824 -12.32701,-56.89525 c 0.007,-1.21784 0.84138,-2.27364 2.01599,-2.56115 l 27.96752,-6.8127 c 0.15182,-0.0373 0.30437,-0.0609 0.45594,-0.0709 z m -90.59682,41.18843 c 0.0919,-0.005 0.18431,-9.8e-4 0.27651,9.9e-4 0.44222,0.0285 0.88188,0.16922 1.27466,0.42587 l 43.717,39.82308 c -22.21757,17.21699 -36.52219,44.15499 -36.52219,74.43816 0,27.33717 11.65823,51.94993 30.26997,69.14738 l -0.0237,0.50763 -39.30637,43.47826 c -1.04383,0.62737 -2.38014,0.46227 -3.23612,-0.39197 l -20.3534,-20.35556 c -0.88621,-0.88259 -1.02979,-2.26274 -0.34392,-3.31011 l 24.58369,-37.48862 c -4.63878,-8.15758 -8.14921,-17.03448 -10.41411,-26.39717 l -42.47309,-10.38218 c -1.17322,-0.28355 -2.00414,-1.3376 -2.00414,-2.55512 v -28.78773 c 0,-1.24944 0.87681,-2.32754 2.09433,-2.58008 l 43.76066,-9.1026 c 2.42175,-8.08402 5.80784,-15.74815 10.03546,-22.85565 l -23.8354,-39.25518 c -0.63096,-1.03941 -0.47042,-2.37268 0.38556,-3.23132 l 20.35938,-20.35636 c 0.4812,-0.4846 1.11151,-0.74595 1.75534,-0.77192 z m 194.79722,134.98562 57.0729,12.77969 c 1.0646,0.59128 1.5885,1.83182 1.2756,2.99995 l -7.4762,27.79739 c -0.3224,1.20836 -1.447,2.02214 -2.697,1.95075 l -44.7567,-2.58607 c -4.7526,8.09183 -10.6916,15.56588 -17.6734,22.20239 l 12.2081,41.9843 c 0.34,1.15812 -0.1593,2.40509 -1.2142,3.01291 l -24.9425,14.37142 c -1.0826,0.62374 -2.4551,0.4013 -3.2817,-0.52757 l -29.7327,-33.37343 c -8.2136,1.9373 -16.5448,2.82968 -24.81368,2.7147 l -22.11473,40.24996 c -0.58565,1.06555 -1.82198,1.59163 -2.9933,1.27858 l -27.801,-7.47893 c -1.20706,-0.32008 -2.01853,-1.44373 -1.94862,-2.69276 l 15.03587,-56.90526 0.26959,-0.14763 c 10.45183,4.00398 21.79675,6.20336 33.65676,6.20336 45.01651,0 82.64531,-31.60627 91.92691,-73.8338 z"
     id="path1493" />
</svg>
